{
  "project_info": {
    "project_number": "697467024195",
    "firebase_url": "https://parq-me-up.firebaseio.com",
    "project_id": "parq-me-up",
    "storage_bucket": "parq-me-up.appspot.com"
  },
  "client": [
    {
      "client_info": {
        "mobilesdk_app_id": "1:697467024195:android:cc149b5b34a1c5a98f75f6",
        "android_client_info": {
          "package_name": "com.app.parq_me_up"
        }
      },
      "oauth_client": [
        {
          "client_id": "697467024195-5m4ininstflnvu22frca9f4dgpgic8vv.apps.googleusercontent.com",
          "client_type": 1,
          "android_info": {
            "package_name": "com.app.parq_me_up",
            "certificate_hash": "32c0f980cb9105a210fc68c8d2235222a189a9be"
          }
        },
        {
          "client_id": "697467024195-6ueqdfntom2sibmt33bvidirfkpu383g.apps.googleusercontent.com",
          "client_type": 3
        }
      ],
      "api_key": [
        {
          "current_key": "AIzaSyBGfb9DBup6NMp2iO3umiMrmwDbuxdM8pA"
        }
      ],
      "services": {
        "appinvite_service": {
          "other_platform_oauth_client": [
            {
              "client_id": "697467024195-6ueqdfntom2sibmt33bvidirfkpu383g.apps.googleusercontent.com",
              "client_type": 3
            }
          ]
        }
      }
    }
  ],
  "configuration_version": "1"
}